tb_processor.vcd
$date
	Thu Apr 23 15:20:05 2026
$end
$version
	Icarus Verilog
$end
$timescale
	1ps
$end
$scope module tb_processor $end
$var reg 1 ! clk $end
$var reg 1 " rst_n $end
$scope module dut $end
$var wire 1 ! clk $end
$var wire 1 # pc_src $end
$var wire 1 " rst_n $end
$var wire 1 $ zero $end
$var wire 64 % rs2_data [63:0] $end
$var wire 64 & rs1_data [63:0] $end
$var wire 1 ' reg_write $end
$var wire 64 ( rd_wdata [63:0] $end
$var wire 64 ) pc_plus4 [63:0] $end
$var wire 64 * pc_next [63:0] $end
$var wire 64 + pc_branch [63:0] $end
$var wire 64 , pc [63:0] $end
$var wire 1 - mem_write $end
$var wire 1 . mem_to_reg $end
$var wire 1 / mem_read $end
$var wire 64 0 mem_rdata [63:0] $end
$var wire 32 1 instruction [31:0] $end
$var wire 64 2 imm [63:0] $end
$var wire 1 3 branch $end
$var wire 1 4 alu_src $end
$var wire 64 5 alu_result [63:0] $end
$var wire 2 6 alu_op_sel [1:0] $end
$var wire 64 7 alu_op2 [63:0] $end
$var wire 4 8 alu_op [3:0] $end
$scope module alu_control $end
$var wire 1 9 funct7_5 $end
$var wire 32 : instruction [31:0] $end
$var wire 3 ; funct3 [2:0] $end
$var wire 2 < alu_op_sel [1:0] $end
$var reg 4 = alu_op [3:0] $end
$upscope $end
$scope module alu_src_mux $end
$var wire 1 4 sel $end
$var wire 64 > out [63:0] $end
$var wire 64 ? op2 [63:0] $end
$var wire 64 @ op1 [63:0] $end
$upscope $end
$scope module alu_unit $end
$var wire 4 A alu_op [3:0] $end
$var wire 64 B op2 [63:0] $end
$var wire 1 $ zero $end
$var wire 64 C op1 [63:0] $end
$var reg 64 D result [63:0] $end
$upscope $end
$scope module ctrl $end
$var wire 7 E opcode [6:0] $end
$var reg 2 F aluOp [1:0] $end
$var reg 1 4 aluSrc $end
$var reg 1 3 branch $end
$var reg 1 / memRead $end
$var reg 1 . memToReg $end
$var reg 1 - memWrite $end
$var reg 1 ' regWrite $end
$upscope $end
$scope module data_mem $end
$var wire 64 G addr [63:0] $end
$var wire 1 ! clk $end
$var wire 1 / read_en $end
$var wire 1 " rst_n $end
$var wire 1 - write_en $end
$var wire 64 H write_data [63:0] $end
$var wire 64 I read_data [63:0] $end
$var integer 32 J i [31:0] $end
$upscope $end
$scope module imm_gen $end
$var wire 32 K instruction [31:0] $end
$var reg 64 L immediate [63:0] $end
$upscope $end
$scope module instr_mem $end
$var wire 1 ! clk $end
$var wire 1 " rst_n $end
$var wire 32 M instruction [31:0] $end
$var wire 64 N addr [63:0] $end
$var integer 32 O i [31:0] $end
$upscope $end
$scope module pc_mux $end
$var wire 64 P op1 [63:0] $end
$var wire 64 Q op2 [63:0] $end
$var wire 1 # sel $end
$var wire 64 R out [63:0] $end
$upscope $end
$scope module pc_reg $end
$var wire 1 ! clk $end
$var wire 64 S pc_next [63:0] $end
$var wire 1 " rst_n $end
$var reg 64 T pc_prev [63:0] $end
$upscope $end
$scope module reg_file $end
$var wire 1 ! clk $end
$var wire 5 U rd_addr [4:0] $end
$var wire 64 V read_data1 [63:0] $end
$var wire 64 W read_data2 [63:0] $end
$var wire 5 X rs1_addr [4:0] $end
$var wire 5 Y rs2_addr [4:0] $end
$var wire 1 " rst_n $end
$var wire 1 ' write_enable $end
$var wire 64 Z write_data [63:0] $end
$var integer 32 [ i [31:0] $end
$upscope $end
$scope module wb_mux $end
$var wire 64 \ op1 [63:0] $end
$var wire 64 ] op2 [63:0] $end
$var wire 1 . sel $end
$var wire 64 ^ out [63:0] $end
$upscope $end
$upscope $end
$scope task check_reg $end
$var reg 64 _ actual [63:0] $end
$var reg 64 ` expected [63:0] $end
$var reg 5 a reg_num [4:0] $end
$upscope $end
$upscope $end
$enddefinitions $end
$comment Show the parameter values. $end
$dumpall
$end
#0
$dumpvars
bx a
bx `
bx _
bx ^
b0 ]
bx \
bx [
bx Z
bx Y
bx X
bx W
bx V
bx U
bx T
bx S
bx R
bx Q
bx P
bx O
bx N
bx M
b0 L
bx K
bx J
b0 I
bx H
bx G
b0 F
bx E
bx D
bx C
bx B
b10 A
bx @
b0 ?
bx >
b10 =
b0 <
bx ;
bx :
x9
b10 8
bx 7
b0 6
bx 5
04
03
b0 2
bx 1
b0 0
0/
0.
0-
bx ,
bx +
bx *
bx )
bx (
0'
bx &
bx %
x$
0#
1"
0!
$end
#5000
b101 (
b101 Z
b101 ^
0$
b101 5
b101 D
b101 G
b101 \
b101 7
b101 >
b101 B
09
b10 8
b10 =
b10 A
b0 %
b0 @
b0 H
b0 W
b0 &
b0 C
b0 V
b10 6
b10 <
b10 F
1'
14
b0 ;
b1 U
b101 Y
b0 X
b10011 E
b101 2
b101 ?
b101 L
b10100000000000010010011 1
b10100000000000010010011 :
b10100000000000010010011 K
b10100000000000010010011 M
b100 *
b100 R
b100 S
b101 +
b101 Q
b100 )
b100 P
b0 ,
b0 N
b0 T
b10000000000 O
b100000 [
b10000000000 J
1!
#10000
0!
#15000
0"
b10000000000 J
b100000 [
b10000000000 O
1!
#20000
0!
#25000
b11 (
b11 Z
b11 ^
b11 5
b11 D
b11 G
b11 \
b11 7
b11 >
b11 B
b10 U
b11 Y
b11 2
b11 ?
b11 L
b1100000000000100010011 1
b1100000000000100010011 :
b1100000000000100010011 K
b1100000000000100010011 M
b1000 *
b1000 R
b1000 S
b111 +
b111 Q
b1000 )
b1000 P
b100 ,
b100 N
b100 T
1!
#30000
0!
#35000
b1000 (
b1000 Z
b1000 ^
b1000 5
b1000 D
b1000 G
b1000 \
b11 %
b11 @
b11 H
b11 W
b101 &
b101 C
b101 V
b10 6
b10 <
b10 F
04
1'
b11 7
b11 >
b11 B
b11 U
b10 Y
b1 X
b110011 E
b0 2
b0 ?
b0 L
b1000001000000110110011 1
b1000001000000110110011 :
b1000001000000110110011 K
b1000001000000110110011 M
b1100 *
b1100 R
b1100 S
b1000 +
b1000 Q
b1100 )
b1100 P
b1000 ,
b1000 N
b1000 T
1!
#40000
0!
#45000
b0 (
b0 Z
b0 ^
1$
b0 5
b0 D
b0 G
b0 \
b0 7
b0 >
b0 B
b1000 %
b1000 @
b1000 H
b1000 W
b0 &
b0 C
b0 V
1-
14
b0 6
b0 <
b0 F
0'
b11 ;
b0 U
b11 Y
b0 X
b100011 E
b1100000011000000100011 1
b1100000011000000100011 :
b1100000011000000100011 K
b1100000011000000100011 M
b10000 *
b10000 R
b10000 S
b1100 +
b1100 Q
b10000 )
b10000 P
b1100 ,
b1100 N
b1100 T
1!
#50000
0!
#55000
b1000 (
b1000 Z
b1000 ^
b1000 0
b1000 I
b1000 ]
b0 %
b0 @
b0 H
b0 W
1/
1'
1.
14
0-
b100 U
b0 Y
b11 E
b11001000000011 1
b11001000000011 :
b11001000000011 K
b11001000000011 M
b10100 *
b10100 R
b10100 S
b10000 +
b10000 Q
b10100 )
b10100 P
b10000 ,
b10000 N
b10000 T
1!
#60000
0!
#65000
b10 (
b10 Z
b10 ^
b0 0
b0 I
b0 ]
0$
b10 5
b10 D
b10 G
b10 \
b110 8
b110 =
b110 A
b11 %
b11 @
b11 H
b11 W
b101 &
b101 C
b101 V
b1 6
b1 <
b1 F
13
04
0.
0'
0/
b11 7
b11 >
b11 B
b0 ;
b1000 U
b10 Y
b1 X
b1100011 E
b1000 2
b1000 ?
b1000 L
b1000001000010001100011 1
b1000001000010001100011 :
b1000001000010001100011 K
b1000001000010001100011 M
b11000 *
b11000 R
b11000 S
b11100 +
b11100 Q
b11000 )
b11000 P
b10100 ,
b10100 N
b10100 T
1!
#70000
0!
#75000
b101 (
b101 Z
b101 ^
b101 5
b101 D
b101 G
b101 \
19
b1000 &
b1000 C
b1000 V
1'
b10 6
b10 <
b10 F
03
b101 U
b11 X
b110011 E
b0 2
b0 ?
b0 L
b1000000001000011000001010110011 1
b1000000001000011000001010110011 :
b1000000001000011000001010110011 K
b1000000001000011000001010110011 M
b11100 *
b11100 R
b11100 S
b11000 +
b11000 Q
b11100 )
b11100 P
b11000 ,
b11000 N
b11000 T
1!
#80000
0!
#85000
b1 (
b1 Z
b1 ^
b1 5
b1 D
b1 G
b1 \
09
b0 8
b0 =
b0 A
b101 &
b101 C
b101 V
b111 ;
b110 U
b1 X
b1000001111001100110011 1
b1000001111001100110011 :
b1000001111001100110011 K
b1000001111001100110011 M
b100000 *
b100000 R
b100000 S
b11100 +
b11100 Q
b100000 )
b100000 P
b11100 ,
b11100 N
b11100 T
1!
#90000
0!
#95000
b111 (
b111 Z
b111 ^
b111 5
b111 D
b111 G
b111 \
b1 8
b1 =
b1 A
b110 ;
b111 U
b1000001110001110110011 1
b1000001110001110110011 :
b1000001110001110110011 K
b1000001110001110110011 M
b100100 *
b100100 R
b100100 S
b100000 +
b100000 Q
b100100 )
b100100 P
b100000 ,
b100000 N
b100000 T
1!
#100000
0!
#105000
b1111111111111111111111111111111111111111111111111111111111111111 (
b1111111111111111111111111111111111111111111111111111111111111111 Z
b1111111111111111111111111111111111111111111111111111111111111111 ^
b1111111111111111111111111111111111111111111111111111111111111111 5
b1111111111111111111111111111111111111111111111111111111111111111 D
b1111111111111111111111111111111111111111111111111111111111111111 G
b1111111111111111111111111111111111111111111111111111111111111111 \
b1111111111111111111111111111111111111111111111111111111111111111 7
b1111111111111111111111111111111111111111111111111111111111111111 >
b1111111111111111111111111111111111111111111111111111111111111111 B
b10 8
b10 =
b10 A
b0 %
b0 @
b0 H
b0 W
b0 &
b0 C
b0 V
14
b10 6
b10 <
b10 F
1'
b0 ;
b1000 U
b11111 Y
b0 X
b10011 E
b1111111111111111111111111111111111111111111111111111111111111111 2
b1111111111111111111111111111111111111111111111111111111111111111 ?
b1111111111111111111111111111111111111111111111111111111111111111 L
b11111111111100000000010000010011 1
b11111111111100000000010000010011 :
b11111111111100000000010000010011 K
b11111111111100000000010000010011 M
b101000 *
b101000 R
b101000 S
b100011 +
b100011 Q
b101000 )
b101000 P
b100100 ,
b100100 N
b100100 T
1!
#110000
0!
#115000
b100 (
b100 Z
b100 ^
b100 5
b100 D
b100 G
b100 \
b1000 %
b1000 @
b1000 H
b1000 W
b100 7
b100 >
b100 B
b1010 U
b100 Y
b100 2
b100 ?
b100 L
b10000000000010100010011 1
b10000000000010100010011 :
b10000000000010100010011 K
b10000000000010100010011 M
b101100 *
b101100 R
b101100 S
b101100 +
b101100 Q
b101100 )
b101100 P
b101000 ,
b101000 N
b101000 T
1!
#120000
0!
#125000
b1011 U
b100 2
b100 ?
b100 L
b10000000000010110010011 1
b10000000000010110010011 :
b10000000000010110010011 K
b10000000000010110010011 M
b110000 *
b110000 R
b110000 S
b110000 +
b110000 Q
b110000 )
b110000 P
b101100 ,
b101100 N
b101100 T
1!
#130000
0!
#135000
1#
1$
b0 (
b0 Z
b0 ^
b110 8
b110 =
b110 A
b0 5
b0 D
b0 G
b0 \
b100 %
b100 @
b100 H
b100 W
b100 &
b100 C
b100 V
13
b1 6
b1 <
b1 F
04
0'
b100 7
b100 >
b100 B
b1000 U
b1011 Y
b1010 X
b1100011 E
b1000 2
b1000 ?
b1000 L
b101101010000010001100011 1
b101101010000010001100011 :
b101101010000010001100011 K
b101101010000010001100011 M
b111000 *
b111000 R
b111000 S
b111000 +
b111000 Q
b110100 )
b110100 P
b110000 ,
b110000 N
b110000 T
1!
#140000
0!
#145000
b0 7
b0 >
b0 B
b10 8
b10 =
b10 A
0#
b0 %
b0 @
b0 H
b0 W
b0 &
b0 C
b0 V
1'
14
b10 6
b10 <
b10 F
03
b0 U
b0 Y
b0 X
b10011 E
b0 2
b0 ?
b0 L
b10011 1
b10011 :
b10011 K
b10011 M
b111100 *
b111100 R
b111100 S
b111000 +
b111000 Q
b111100 )
b111100 P
b111000 ,
b111000 N
b111000 T
1!
#150000
0!
#155000
b101 (
b101 Z
b101 ^
0$
b101 5
b101 D
b101 G
b101 \
b101 %
b101 @
b101 H
b101 W
b101 7
b101 >
b101 B
b101 Y
b101 2
b101 ?
b101 L
b10100000000000000010011 1
b10100000000000000010011 :
b10100000000000000010011 K
b10100000000000000010011 M
b1000000 *
b1000000 R
b1000000 S
b1000001 +
b1000001 Q
b1000000 )
b1000000 P
b111100 ,
b111100 N
b111100 T
1!
#160000
0!
#165000
b0 (
b0 Z
b0 ^
1$
b0 5
b0 D
b0 G
b0 \
b0 %
b0 @
b0 H
b0 W
b0 6
b0 <
b0 F
04
0'
b0 7
b0 >
b0 B
b0 Y
b0 E
b0 2
b0 ?
b0 L
b0 1
b0 :
b0 K
b0 M
b1000100 *
b1000100 R
b1000100 S
b1000000 +
b1000000 Q
b1000100 )
b1000100 P
b1000000 ,
b1000000 N
b1000000 T
1!
#166000
b0 _
b0 `
b0 a
